﻿  Compiling CUDA source file aes_parallel.cu...
  
  C:\Users\siran\Desktop\Защита информации\Лаба 5\aes_cuda_lab\aes_cuda_lab>"C:\Program Files\NVIDIA GPU Computing Toolkit\CUDA\v11.5\bin\nvcc.exe" -gencode=arch=compute_50,code=\"sm_50,compute_50\" --use-local-env -ccbin "C:\Program Files (x86)\Microsoft Visual Studio\2019\Community\VC\Tools\MSVC\14.29.30133\bin\HostX86\x64" -x cu   -I"C:\Program Files\NVIDIA GPU Computing Toolkit\CUDA\v11.5\include" -I"C:\Program Files\NVIDIA GPU Computing Toolkit\CUDA\v11.5\include"  -G   --keep-dir x64\Debug  -maxrregcount=0  --machine 64 --compile -cudart static  -g  -D_DEBUG -D_CONSOLE -D_UNICODE -DUNICODE -Xcompiler "/EHsc /W3 /nologo /Od /Fdx64\Debug\vc142.pdb /FS /Zi /RTC1 /MDd " -o x64\Debug\aes_parallel.cu.obj "C:\Users\siran\Desktop\Защита информации\Лаба 5\aes_cuda_lab\aes_cuda_lab\aes_parallel.cu" 
C:\Users\siran\Desktop\Защита информации\Лаба 5\aes_cuda_lab\aes_cuda_lab\aes_parallel.cu(280): warning #177-D: function "phex" was declared but never referenced
  
CUDACOMPILE : nvcc warning : The 'compute_35', 'compute_37', 'compute_50', 'sm_35', 'sm_37' and 'sm_50' architectures are deprecated, and may be removed in a future release (Use -Wno-deprecated-gpu-targets to suppress warning).
  aes_parallel.cu
C:\Users\siran\Desktop\Защита информации\Лаба 5\aes_cuda_lab\aes_cuda_lab\aes_parallel.cu(158): warning C4244: аргумент: преобразование "uintmax_t" в "unsigned int", возможна потеря данных
C:\Users\siran\Desktop\Защита информации\Лаба 5\aes_cuda_lab\aes_cuda_lab\aes_parallel.cu(158): warning C4244: аргумент: преобразование "uintmax_t" в "unsigned int", возможна потеря данных
  aes_cuda_lab.vcxproj -> C:\Users\siran\Desktop\Защита информации\Лаба 5\aes_cuda_lab\x64\Debug\aes_cuda_lab.exe
