^C:\USERS\SIRAN\DESKTOP\ЗАЩИТА ИНФОРМАЦИИ\ЛАБА 5\AES_CUDA_LAB\AES_CUDA_LAB\AES_CUDA_LAB.CPP
/c /ZI /JMC /nologo /W3 /WX- /diagnostics:column /sdl /Od /D _DEBUG /D _CONSOLE /D _UNICODE /D UNICODE /Gm- /EHsc /RTC1 /MDd /GS /fp:precise /Zc:wchar_t /Zc:forScope /Zc:inline /permissive- /Fo"X64\DEBUG\\" /Fd"X64\DEBUG\VC143.PDB" /external:W3 /Gd /TP /FC C:\USERS\SIRAN\DESKTOP\ЗАЩИТА ИНФОРМАЦИИ\ЛАБА 5\AES_CUDA_LAB\AES_CUDA_LAB\AES_CUDA_LAB.CPP
^C:\USERS\SIRAN\DESKTOP\ЗАЩИТА ИНФОРМАЦИИ\ЛАБА 5\AES_CUDA_LAB\AES_CUDA_LAB\AES.CU
/c /ZI /JMC /nologo /W3 /WX- /diagnostics:column /sdl /Od /D _DEBUG /D _CONSOLE /D _UNICODE /D UNICODE /Gm- /EHsc /RTC1 /MDd /GS /fp:precise /Zc:wchar_t /Zc:forScope /Zc:inline /permissive- /Fo"X64\DEBUG\\" /Fd"X64\DEBUG\VC143.PDB" /external:W3 /Gd /TP /FC C:\USERS\SIRAN\DESKTOP\ЗАЩИТА ИНФОРМАЦИИ\ЛАБА 5\AES_CUDA_LAB\AES_CUDA_LAB\AES.CU
^C:\USERS\SIRAN\DESKTOP\ЗАЩИТА ИНФОРМАЦИИ\ЛАБА 5\AES_CUDA_LAB\AES_CUDA_LAB\AES_CUDA_LAB.CU
/c /I"C:\PROGRAM FILES\NVIDIA GPU COMPUTING TOOLKIT\CUDA\V11.5\INCLUDE" /ZI /JMC /nologo /W3 /WX- /diagnostics:column /sdl /Od /D _DEBUG /D _CONSOLE /D _UNICODE /D UNICODE /Gm- /EHsc /RTC1 /MDd /GS /fp:precise /permissive- /Zc:wchar_t /Zc:forScope /Zc:inline /Fo"X64\DEBUG\\" /Fd"X64\DEBUG\VC142.PDB" /external:W3 /Gd /TP /FC C:\USERS\SIRAN\DESKTOP\ЗАЩИТА ИНФОРМАЦИИ\ЛАБА 5\AES_CUDA_LAB\AES_CUDA_LAB\AES_CUDA_LAB.CU
